type_document,id_number,name,addresses/street,addresses/country_code,addresses/department_code,addresses/city_code,contact_mechanisms/type,contact_mechanisms/value
31,1,MEDICINA Y TECNOLOGIA EN SALUD MEDYTEC LTDA,CL 15 N° 13-56,COLOMBIA,81,Arauca,email,redarauca@utredintegradafoscal-cub.com
31,2,IPS UNIDAD MEDICA SANTANA S.A.S.,CL 5 No 4-26,COLOMBIA,81,Arauquita,email,arauquita@avanzarfos
31,3,SOCIEDAD MEDICA DEL ORIENTE LTDA - SOMEDO,CALLE 29 # 15 61,COLOMBIA,81,Saravena,email,saravena@avanzarfos.com
31,4,MEDICINA Y TECNOLOGIA EN SALUD MEDYTEC LTDA,CARRERA 15 no 13 -80,COLOMBIA,81,Tame,email,tame@avanzarfos.com
31,5,FUNDACIÓN MÉDICO PREVENTIVA PAR EL BIENESTAR SOCIAL SA – VALLEDUPAR,CALLE 16 Nº 17-261,COLOMBIA,20,Valledupar,email,redcesar@utredintegradafoscal-cub.com
31,6,FUNDACIÓN MÉDICO PREVENTIVA PAR EL BIENESTAR SOCIAL SA – AGUACHICA,CARRERA 9 # 5A-145,COLOMBIA,20,Aguachica,email,san.agucoordinador1@fundamep.com
31,7,FUNDACIÓN MÉDICO PREVENTIVA PAR EL BIENESTAR SOCIAL SA – AGUSTIN CODAZZI,Carrera 11 No 13-20,COLOMBIA,20,Agustin Codazzi,email,fmpcodazzi@hotmail.com
31,8,CLINICA REGIONAL DE ESPECIALISTAS SINAIS VITAIS SAS,CALLE 18 NRO. 16 - 09,COLOMBIA,20,Bosconia,email,clinicasinaisvitais@hotmail.com
31,9,HOSPITAL INMACULADA CONCEPCION,CRA 8 N 8-83,COLOMBIA,20,Chimichagua,email,gerente@esehic.gov.co
31,10,PALMA SALUD,Calle 8 Nº 20 - 50,COLOMBIA,20,El Copey,email,palmasalud@hotmail.com
31,11,MI HUELLA DE PAZ IPS SAS,CALLE 6 No. 18 -73,COLOMBIA,20,Curumani,email,ipshuellasdepaz@gmail.com
31,12,HOSPITAL HERNANDO QUINTERO BLANCO E.S.E,PLAZA PRINCIPAL,COLOMBIA,20,El Paso,email,facturacionhhqb@hotmail.com
31,13,CARBOSALUD S.A.S,CALLE 5 N 8-31,COLOMBIA,20,La Jagua De Ibirico,email,carbosalud.sas.ips@hotmail.com
31,14,FUNDACIÓN MÉDICO PREVENTIVA PAR EL BIENESTAR SOCIAL SA,CALLE 9 No. 31-51 B. Las Flores,COLOMBIA,20,Chiriguana,email,fmpchiriguana@hotmail.com 
31,15,REDINSALUD IPS S.A.S.,Carrera 4 No. 4 - 18,COLOMBIA,20,San Alberto,email,san.agucoordinador1@fundamep.com
31,16,FUNDACION MEDICO PREVENTIVA PARA EL BIENESTAR SOCIAL S.A- CUCUTA / SEDE QUINTA ORIENTAL,AVENIDA 9E #6-107 QUINTA ORIENTAL,COLOMBIA,54,Cucuta,email,Nor.CoordinadorGeneralDptalMag@fundamep.com
31,17,FUNDACION MEDICO PREVENTIVA PARA EL BIENESTAR SOCIAL S.A- CUCUTA SEDE BARRIO BLANCO,AVENIDA 3 No 20-88 BARRIO BLANCO,COLOMBIA,54,Cucuta,email,Nor.auditorreferenciacaobos@fundamep.com
31,18,FUNDACION MEDICO PREVENTIVA PARA EL BIENESTAR SOCIAL S.A- CUCUTA / FUNDACION MEDICO PREVENTIVA PARA EL BIENESTAR SOCIAL S.A. OCAÑA,KDX 180-200,COLOMBIA,54,Ocaña,email,San.coordinadorocana@fundamep.com
31,19,KARISALUD IPS LTDA,CARRERA 6 No. 9-51,COLOMBIA,54,Abrego,email,karisaludipsltda@gmail.com
31,20,EMPRESA SOCIAL DEL ESTADO HOSPITAL REGIONAL NOROCCIDENTAL / IPS CONVENCIÓN,BARRIO SAGOC,COLOMBIA,54,Convencion,email,ipsconvencion@hotmail.com
31,21,CENTRO MEDICO LA SAMARITANA LTDA,AV 10 # 25-02,COLOMBIA,54,Los Patios,email,lasamaritana1984@hotmail.com
31,22,FUNDACION MEDICO PREVENTIVA PARA EL BIENESTAR SOCIAL S.A- CUCUTA / FUNDACION MEDICO PREVENTIVA PARA EL BIENESTAR SOCIAL S.A.-PAMPLONA,AVENIDA SANTANDER No 11-96,COLOMBIA,54,Pamplona,email,nor.coordinadorfmppamplona@fundamep.com
31,23, IPS CENTRO CLINICO INTEGRAL TIBU LTDA,Carrera 7 No 7-25,COLOMBIA,54,Tibu,email,ipscentroclinicointegraltibu@yahoo.es
31,24, INTEGRADOS EN SALUD IPS LTDA,Callle 5 No. 10-19,COLOMBIA,54,Villa Del Rosario,email,integradosensalud@gmail.com
31,25,FUNDACION AVANZAR FOS - SEDE BUCARAMANGA,CARRERA 28 No 49-40 Sotomayor,COLOMBIA,68,Bucaramanga,email,coor_bucaramanga@avanzarfos.com
31,26,FUNDACION AVANZAR FOS - SEDE BARRANCABERMEJA,CALLE 49 No. 24-37 B. COLOMBIA,COLOMBIA,68,Barrancabermeja,email,calidad_barranca@avanzarfos.com
31,27,FUNDACION AVANZAR FOS - SEDE FLORIDABLANCA,CALLE 158 No. 20-95 Piso 0 entrada por la rampa lateral Clinica Foscal Internacional,COLOMBIA,68,Floridablanca,email,coor_floridablanca@avanzarfos.com
31,28,FUNDACION AVANZAR FOS - SEDE GIRÓN,CARRERA 26 No 32-33,COLOMBIA,68,Giron,email,giron@avanzarfos.com
31,29,FUNDACION AVANZAR FOS - SEDE PIEDECUESTA,CALLE 11 N° 6 - 34,COLOMBIA,68,Piedecuesta,email,piedecuesta@avanzarfos.com
31,30,FUNDACION AVANZAR FOS - SEDE SAN GIL,Carrera 17 No. 35-46 locales 206-207-208 centro comercial San Gil Plaza,COLOMBIA,68,San Gil,email,sangil@avanzarfos.com
31,31,FUNDACION AVANZAR FOS - SEDE BARBOSA,CARRERA 10 #5-230,COLOMBIA,68,Barbosa,email,barbosa@avanzarfos.com
31,32,GRUPO GARANTE LTDA,CALLE 6 # 5-37,COLOMBIA,68,Cimitarra,email,grupogaranteips@gmail.com
31,33,FUNDACION AVANZAR FOS - SEDE MALAGA,CARRERA 10 No. 13 - 35,COLOMBIA,68,Malaga,email,malaga@avanzarfos.com
31,34,FORPRESALUD -SEDE PUERTO WILCHES ,CRA 3 # 6 46,COLOMBIA,68,Puerto Wilches,email,puertowilches@avanzarfos.com
31,35,SALUD RH LTDA,CL 8 No. 10-64 int. 101,COLOMBIA,68,San Vicente De Chucuri,email,salud.rh@hotmail.com
31,36,FUNDACION AVANZAR FOS - SEDE SOCORRO,CARRERA 15 No 10-51,COLOMBIA,68,Socorro,email,socorro@avanzarfos.com
31,37,FUNDACION AVANZAR FOS - SEDE VELEZ,CALLE 9 No. 4 -40 Y 4-42,COLOMBIA,68,Velez,email,velez@avanzarfos.com
